property:
    disk_size = 7168m
    gpt_header_lba = 512
    custom_signature = 0

partition:
	#name     =  start,   size, fstype
	xboot     =     0m,     3m,
	boot      =     3m,     8m, EMPTY
	recovery  =    12m,    16m, EMPTY
        pretest   =    28m,    16m, EMPTY
        reserved  =    44m,    52m, EMPTY
	misc      =    96m,     4m, EMPTY
	cache     =   100m,   100m, LINUX_FS
	system    =   200m,   824m, LINUX_FS
	data      =   1024m,  6144m, LINUX_FS

#fstype could be: LINUX_FS, FAT_FS, EMPTY
